Forecasting with Linear Regression
…
The Auto Regressive (AR) model is a common approach in time series forecasting to model time series with high correlation with its past lags. The AR model is part of a family of models that construct the ARIMA family of models.

At its core, AR model is a regression of the series with its previous lags. For example, AR 1 model would be a regression of the series with its lag one:

\[
Y_t = \alpha + \beta * Y_{t-1}
\]

Let’s create a lag 1 feature:

ts1$lag1 <- dplyr::lag(ts1$y, n = 1)

ts1

# A tsibble: 37 x 10 [1Y]
   index       y series_id trend     fit1     res1 trend2   fit2    res2    lag1
   <int>   <int> <chr>     <int>    <dbl>    <dbl>  <dbl>  <dbl>   <dbl>   <int>
 1  1987 7904858 SCA           1 8203166. -298308.      0 8.00e6 -99948.      NA
 2  1988 8113034 SCA           2 8298367. -185333.      0 8.12e6  -7963. 7904858
 3  1989 8313776 SCA           3 8393567.  -79791.      0 8.24e6  76588. 8113034
 4  1990 8497848 SCA           4 8488767.    9081.      0 8.35e6 144469. 8313776
 5  1991 8634774 SCA           5 8583968.   50806.      0 8.47e6 165205. 8497848
 6  1992 8680613 SCA           6 8679168.    1445.      0 8.59e6  94853. 8634774
 7  1993 8726187 SCA           7 8774368.  -48181.      0 8.70e6  24236. 8680613
 8  1994 8790733 SCA           8 8869569.  -78836.      0 8.82e6 -27409. 8726187
 9  1995 8865541 SCA           9 8964769.  -99228.      0 8.93e6 -68792. 8790733
10  1996 8969308 SCA          10 9059969.  -90661.      0 9.05e6 -81215. 8865541
# ℹ 27 more rows
…
